<?xml version="1.0" encoding="UTF-8" standalone="no"?>
<svg
   xmlns:dc="http://purl.org/dc/elements/1.1/"
   xmlns:cc="http://creativecommons.org/ns#"
   xmlns:rdf="http://www.w3.org/1999/02/22-rdf-syntax-ns#"
   xmlns:svg="http://www.w3.org/2000/svg"
   xmlns="http://www.w3.org/2000/svg"
   width="800"
   height="800"
   viewBox="0 0 800.00001 800.00001"
   id="svg2"
   version="1.1">
  <defs
     id="defs4" />
  <metadata
     id="metadata7">
    <rdf:RDF>
      <cc:Work
         rdf:about="">
        <dc:format>image/svg+xml</dc:format>
        <dc:type
           rdf:resource="http://purl.org/dc/dcmitype/StillImage" />
        <dc:title></dc:title>
      </cc:Work>
    </rdf:RDF>
  </metadata>
  <g
     id="text3695"
     style="font-style:normal;font-weight:normal;font-size:739.22900391px;line-height:125%;font-family:sans-serif;text-align:center;letter-spacing:0px;word-spacing:0px;text-anchor:middle;fill:#000000;fill-opacity:1;stroke:none;stroke-width:1px;stroke-linecap:butt;stroke-linejoin:miter;stroke-opacity:1">
    <path
       style=""
       id="path3712"
       d="m 522.86221,727.21075 q -12.62849,0 -21.86885,-8.93235 -8.93236,-9.24036 -8.93236,-21.86885 l 0,-431.21692 -123.20483,0 200.20786,-200.207858 200.20785,200.207858 -123.20483,0 0,431.21692 q 0,12.62849 -9.24037,21.86885 -8.93235,8.93235 -21.56084,8.93235 l -92.40363,0 z M 230.25073,742.61136 30.042877,542.4035 l 123.204833,0 0,-431.21692 q 0,-12.628491 8.93235,-21.560841 9.24036,-9.240363 21.86886,-9.240363 l 92.40363,0 q 12.62849,0 21.56084,9.240363 9.24036,8.93235 9.24036,21.560841 l 0,431.21692 123.20484,0 -200.20786,200.20786 z" />
  </g>
</svg>
