[
  {
    "tag": "Code",
    "name": "snippet_0036",
    "img": "code.png"
  },
  {"tag":"Titel Startseite",
   "name": "snippet_0037",
   "img": "b037.png"
   },
  {
    "tag": "Titel",
    "name": "snippet_0001",
    "img": "b01.png"
  },
  {
    "tag": "Titel",
    "name": "snippet_0014",
      "img": "b00.png"
  },
  {
    "tag": "Titel Icon",
    "name": "snippet_0032",
      "img": "b20.png"
  },
  {
    "tag": "Titel Linie",
    "name": "snippet_0015",
    "img": "b32.png"
  },
  {
    "tag": "Linie",
    "name": "snippet_0004",
    "img": "v01.png"
  },
  {
    "tag": "Panel",
    "name": "snippet_0008",
    "img": "ce09.png"
  },
  {
    "tag": "Panel",
    "name": "snippet_0002",
    "img": "de08.png"
  },
  {
    "tag": "Panel",
    "name": "snippet_0016",
    "img": "de09.png"
  },
  {
    "tag": "Panel Icon",
    "name": "snippet_0017",
    "img": "de10.png"
  },
  {
    "tag": "Panel Icon",
    "name": "snippet_0018",
    "img": "de11.png"
  },
  {
    "tag": "Panel Icon",
    "name": "snippet_0019",
    "img": "de12.png"
  },
  {
    "tag": "Bild",
    "name": "snippet_0033",
    "img": "e09.png"
  },
  {
    "tag": "Panel Bild",
    "name": "snippet_0020",
    "img": "de16.png"
  },
  {
    "tag": "Panel Bild",
    "name": "snippet_0021",
    "img": "de17.png"
  },
  {
    "tag": "Panel Bild",
    "name": "snippet_0022",
    "img": "de18.png"
  },
  {
    "tag": "Panel",
    "name": "snippet_0023",
    "img": "de23.png"
  },
  {
    "tag": "Prozess Icon",
    "name": "snippet_0024",
    "img": "ef02.png"
  },
  {
    "tag": "Prozess Icon",
    "name": "snippet_0025",
    "img": "ef03.png"
  },
  {
    "tag": "Prozess Icon",
    "name": "snippet_0026",
    "img": "q02.png"
  },
  {
    "tag": "Prozess Icon",
    "name": "snippet_0027",
    "img": "q25.png"
  },
  {
    "tag": "Video",
    "name": "snippet_0028",
    "img": "p38.png"
  },
  {
    "tag": "Video",
    "name": "snippet_0034",
    "img": "p39.png"
  },
  {
    "tag": "Video",
    "name": "snippet_0035",
    "img": "p40.png"
  },
  {
    "tag": "Bild Prozess",
    "name": "snippet_0029",
    "img": "q26.png"
  },
  {
    "tag": "Zitat",
    "name": "snippet_0030",
    "img": "r01.png"
  },
  {
    "tag": "Bild Button",
    "name": "snippet_0003",
    "img": "p01.png"
  },
  {
    "tag": "Bild Button",
    "name": "snippet_0005",
    "img": "p02.png"
  },

  {
    "tag": "Titel Button Icon",
    "name": "snippet_0006",
    "img": "p35.png"
  },
  {
    "tag": "Titel Button Icon",
    "name": "snippet_0007",
    "img": "p36.png"
  },
  {
    "tag": "Prozess",
    "name": "snippet_0010",
    "img": "cd03.png"
  },
  {
    "tag": "Prozess",
    "name": "snippet_0009",
    "img": "cd07.png"
  },
  {
    "tag": "Bild Prozess",
    "name": "snippet_0011",
    "img": "q20.png"
  },
  {
    "tag": "Zitat Prozess",
    "name": "snippet_0012",
    "img": "r22.png"
  },
  {
    "tag": "Preise Panel",
    "name": "snippet_0013",
    "img": "y03.png"
  },
  {
    "tag": "Preise Panel",
    "name": "snippet_0031",
    "img": "y09.png"
  }
]
