[
  {
    "src": "https://developer.terminflix.de//assets//img/flix_comic/flix_nach_rechts_zeigend.svg"
  },
  {
    "src": "https://developer.terminflix.de//assets//img/flix_comic/flix_nach_links_zeigend.svg"
  },
  {
    "src": "https://developer.terminflix.de//assets//img/flix_comic/flix_nach_rechts_zeigend.svg"
  },
  {
    "src": "https://developer.terminflix.de//assets//img/flix_comic/flix_nach_rechts_zeigend.svg"
  },
  {
    "src": "https://developer.terminflix.de//assets//img/flix_comic/flix_nach_rechts_zeigend.svg"
  },
  {
    "src": "https://developer.terminflix.de//assets//img/flix_comic/flix_nach_rechts_zeigend.svg"
  },
  {
    "src": "https://developer.terminflix.de//assets//img/flix_comic/flix_nach_rechts_zeigend.svg"
  },
  {
    "src": "https://developer.terminflix.de//assets//img/flix_comic/flix_nach_rechts_zeigend.svg"
  },
  {
    "src": "https://developer.terminflix.de//assets//img/flix_comic/flix_nach_rechts_zeigend.svg"
  },
  {
    "src": "https://developer.terminflix.de//assets//img/flix_comic/flix_nach_rechts_zeigend.svg"
  },
  {
    "src": "https://developer.terminflix.de//assets//img/flix_comic/flix_nach_rechts_zeigend.svg"
  },
  {
    "src": "https://developer.terminflix.de//assets//img/flix_comic/flix_nach_rechts_zeigend.svg"
  },
  {
    "src": "https://developer.terminflix.de//assets//img/flix_comic/flix_nach_rechts_zeigend.svg"
  },
  {
    "src": "https://developer.terminflix.de//assets//img/flix_comic/flix_nach_rechts_zeigend.svg"
  }
]
